Driver,TripsheetDate,Status,Date,MileageFrom,MileageTo,Car,EngineOil,TransmissionFluid,Coolant,Note,AdminNote,Trips,DriverOwes,GrossSale,TotalFees,TotalCashCreditFare,DriverSubTotal,TotalCreditFaresTips,GrossToRoyal,SixtyPercent,MisecellneousChargeCredit
"Bob Leitz",12-20-2019,submitted,12-21-2019,84897,85053,ok,ok,ok,ok,,,9,-160.18,419.7,26,270.7,-160.18,354.6,194.42,162.42,0
"Bob Leitz",12-19-2019,submitted,12-20-2019,84735,84897,ok,ok,ok,0k,,,5,48.56,257.6,0,242.6,48.56,103,151.56,145.56,0
Driver1,12-08-2019,submitted,12-08-2019,1,2,99,,,,,,0,6,0,0,0,6,0,6,0,0
"Frank Hernandez",12-02-2019,submitted,12-03-2019,104206,104356,16,,,,,,5,-26.24,196.8,0,162.1,-26.24,129.5,103.26,97.26,0
"Doug Weber",11-30-2019,submitted,12-03-2019,0,0,0,0,0,0,0,,8,42.36,306.1,0,294.1,42.36,140.1,182.46,176.46,0
"Frank Hernandez",11-29-2019,submitted,12-02-2019,103989,104147,16,,,,,,7,8.88,280.3,0,260.3,8.88,153.3,162.18,156.18,0
"Ron Brock",11-29-2019,submitted,12-07-2019,95019,95165,14,1,1,1,"Note sent photo on attachment.  Voucher is correct grand gave that to me so bouns..",,7,-7.2,256.54,3.54,238,-7.2,159.54,152.34,142.8,0
"Frank Hernandez",11-28-2019,submitted,12-02-2019,103667,103989,16,,,,,,14,86.17,590.45,26,548.7,86.17,275.05,361.22,329.22,0
"Frank Hernandez",11-27-2019,submitted,12-02-2019,103432,103667,16,,,,,,9,-260.84,569.2,26,460.6,-260.84,569.2,308.36,276.36,0
"Frank Hernandez",11-26-2019,submitted,12-02-2019,103260,103432,16,,,,,,9,-74.28,273.77,1.87,243.7,-74.28,228.37,154.09,146.22,0
"Frank Hernandez",11-25-2019,submitted,12-02-2019,103085,103260,16,,,,,,5,-176.44,405.3,26,328.1,-176.44,405.3,228.86,196.86,0
"Doug Weber",11-25-2019,submitted,12-03-2019,0,0,5.00,0,0,0,"$5.00 coupon referral fee given to front desk clerk",,7,-130.4,349.5,2.5,293.5,-130.4,315,184.6,176.1,0
"Doug Weber",11-24-2019,submitted,12-03-2019,0,0,0,0,0,0,0,,7,28.26,300.1,28.5,262.1,28.26,163.5,191.76,157.26,0
"Doug Weber",11-23-2019,submitted,12-03-2019,0,0,0,0,0,0,0,,7,62.98,302.8,54.5,243.3,62.98,143.5,206.48,145.98,0
"Frank Hernandez",11-19-2019,submitted,12-02-2019,102529,102708,16,,,,,,12,111.5,349.5,26,315.5,111.5,109.8,221.3,189.3,0
"Doug Weber",11-16-2019,submitted,11-19-2019,0,0,0,0,0,0,0,,7,-19.56,364.9,26,319.9,-19.56,243.5,223.94,191.94,0
"Frank Hernandez",11-16-2019,submitted,12-02-2019,102385,102427,16,,,,"Second entry is for oil change performed on car 16 on 10/22/19. I forgot I had receipt in my folder. Could not figure out how to enter, even if it was entered on the day performed. Please advise if I need to do it another  way and resubmit this trip sheet.",,2,20.18,101.55,0,101.55,20.18,46.75,66.93,60.93,0
"Frank Hernandez",11-15-2019,submitted,12-02-2019,102323,102385,16,,,,,,6,-32.24,158.6,0,153.6,-32.24,130.4,98.16,92.16,0
"Frank Hernandez",11-14-2019,submitted,12-02-2019,102182,102323,16,,,,,,5,-28.86,240.9,26,189.9,-28.86,174.8,145.94,113.94,0
"Doug Weber",11-13-2019,submitted,11-19-2019,0,0,0,0,0,0,0,,2,-81.52,173.8,0,143.8,-81.52,173.8,92.28,86.28,0
"Doug Weber",11-12-2019,submitted,11-19-2019,0,0,0,0,0,0,0,,6,-22.72,226.3,0,199.3,-22.72,148.3,125.58,119.58,0
"Frank Hernandez",11-12-2019,submitted,12-02-2019,101838,101988,16,,,,,,8,91.36,275.1,0,262.1,91.36,71.9,163.26,157.26,0
"Ron Brock",11-11-2019,submitted,12-02-2019,186741,186815,28,1,1,1,"Note car 14 in shop for tire repair and service. I sent you copys of the bill I added it on this trip sheet. 221.00.I. paid cash....",,4,23.44,185.4,26,144.4,23.44,95.2,118.64,86.64,0
"Frank Hernandez",11-07-2019,submitted,12-02-2019,101043,101252,16,,,,,,9,65.36,340.1,0,335.1,65.36,141.7,207.06,201.06,0
"Michael Gosky",11-07-2019,submitted,12-22-2019,4,5,22,o,o,o,,,14,68,288,0,285,68,109,177,171,0
"Michael Gosky",11-06-2019,submitted,12-22-2019,4,5,22,o,o,o,,,8,4.6,357,26,306,4.6,211,215.6,183.6,0
"Michael Gosky",11-05-2019,submitted,12-22-2019,4,5,22,o,o,o,,,7,2.4,138,0,124,2.4,78,80.4,74.4,0
"Michael Gosky",11-04-2019,submitted,12-22-2019,4,5,22,o,o,o,,,5,80,131,26,100,80,12,92,60,0
"Ron Brock",11-03-2019,submitted,11-18-2019,92645,92808,14,,,,,,5,13.56,302.6,0,262.6,13.56,150,163.56,157.56,0
"Michael Gosky",11-03-2019,submitted,12-22-2019,4,5,22,o,o,o,,,8,98.4,279,0,279,98.4,75,173.4,167.4,0
"Michael Gosky",11-02-2019,submitted,12-22-2019,4,5,22,o,o,o,,,6,-20.7,122.5,0,113,-20.7,94.5,73.8,67.8,0
"Michael Gosky",11-01-2019,submitted,12-22-2019,4,5,22,o,o,o,,,2,-1.2,35,0,33,-1.2,27,25.8,19.8,0
"Michael Gosky",10-31-2019,submitted,12-11-2019,4,5,22,o,o,o,,,8,99,155,0,155,99,0,99,93,0
"Michael Gosky",10-30-2019,submitted,12-11-2019,4,5,22,o,o,o,,,4,-85,150,0,90,-85,145,60,54,0
"Michael Gosky",10-29-2019,submitted,12-11-2019,4,5,22,o,o,o,,,2,-33.2,110,0,98,-33.2,98,64.8,58.8,0
"Michael Gosky",10-28-2019,submitted,12-11-2019,4,5,22,o,o,o,,,5,42,60,0,60,42,0,42,36,0
"Michael Gosky",10-27-2019,submitted,12-11-2019,4,5,22,o,o,o,,,4,87,135,0,135,87,0,87,81,0
"Michael Gosky",10-26-2019,submitted,12-11-2019,4,5,22,o,o,o,,,6,48,70,0,70,48,0,48,42,0
"Michael Gosky",10-25-2019,submitted,12-11-2019,4,5,22,o,o,o,,,2,25.8,33,0,33,25.8,0,25.8,19.8,0
"Michael Gosky",10-24-2019,submitted,12-11-2019,4,5,22,o,o,o,,,6,17,145,0,140,17,73,90,84,0
"Michael Gosky",10-23-2019,submitted,12-11-2019,4,5,22,o,o,o,,,3,36,50,0,50,36,0,36,30,0
"Michael Gosky",10-22-2019,submitted,12-11-2019,4,5,22,o,o,o,,,4,64.2,97,0,97,64.2,0,64.2,58.2,0
"Michael Gosky",10-21-2019,submitted,12-11-2019,4,5,22,o,o,o,,,2,14.4,14,0,14,14.4,0,14.4,8.4,0
"Michael Gosky",10-20-2019,submitted,12-11-2019,4,5,22,o,o,o,,,3,-26,195,0,180,-26,140,114,108,0
"Michael Gosky",10-19-2019,submitted,12-11-2019,4,5,22,o,o,o,,,4,46.8,68,0,68,46.8,0,46.8,40.8,0
"Michael Gosky",10-18-2019,submitted,12-11-2019,4,5,22,o,o,o,,,6,47.2,92,0,87,47.2,11,58.2,52.2,0
"Michael Gosky",10-17-2019,submitted,12-11-2019,4,5,22,o,o,o,,,1,18,20,0,20,18,0,18,12,0
"Michael Gosky",10-16-2019,submitted,12-11-2019,4,5,22,o,o,o,,,11,25.4,177,0,164,25.4,79,104.4,98.4,0
"Michael Gosky",10-15-2019,submitted,12-10-2019,4,5,22,o,o,o,,,0,6,0,0,0,6,0,6,0,0
"Michael Gosky",10-15-2019,submitted,12-10-2019,4,5,22,o,o,o,,,8,7,237,0,155,7,92,99,93,0
"Michael Gosky",10-14-2019,submitted,12-10-2019,4,5,22,o,o,o,,,1,0,15,0,15,0,15,15,9,0
"Michael Gosky",10-13-2019,submitted,12-10-2019,4,5,22,o,o,o,,,3,22.8,28,0,28,22.8,0,22.8,16.8,0
"Michael Gosky",10-12-2019,submitted,12-10-2019,4,5,22,o,o,o,,,6,22.6,206,0,206,22.6,107,129.6,123.6,0
"Michael Gosky",10-11-2019,submitted,12-10-2019,4,5,22,0,0,0,,,1,19.2,22,0,22,19.2,0,19.2,13.2,0
"Michael Gosky",10-10-2019,submitted,12-09-2019,4,5,22,o,o,o,,,5,45,65,0,65,45,0,45,39,0
"Michael Gosky",10-09-2019,submitted,12-09-2019,4,5,22,0,o,o,,,3,27,35,0,35,27,0,27,21,0
"Michael Gosky",10-08-2019,submitted,12-09-2019,4,5,22,o,o,o,,,4,24.6,31,0,31,24.6,0,24.6,18.6,0
"Michael Gosky",10-07-2019,submitted,12-09-2019,4,5,22,o,o,o,,,4,35.4,84,0,84,35.4,21,56.4,50.4,0
"Michael Gosky",10-06-2019,submitted,12-09-2019,4,5,22,o,o,o,,,1,-30,90,0,90,-30,90,60,54,0
"Michael Gosky",10-05-2019,submitted,12-09-2019,4,5,22,o,o,o,,,7,-33.6,176,0,159,-33.6,135,101.4,95.4,0
"Michael Gosky",10-04-2019,submitted,12-09-2019,4,5,22,o,o,o,,,4,15.6,59,0,56,15.6,24,39.6,33.6,0
"Michael Gosky",10-03-2019,submitted,12-09-2019,4,5,22,o,o,o,,,10,89.8,161,0,158,89.8,11,100.8,94.8,0
"Michael Gosky",10-02-2019,submitted,12-09-2019,4,5,22,o,o,o,,,2,-56.4,166,0,146,-56.4,150,93.6,87.6,0
"Michael Gosky",10-01-2019,submitted,12-09-2019,4,5,22,o,o,o,,,3,31.8,43,0,43,31.8,0,31.8,25.8,0
"Michael Gosky",09-30-2019,submitted,12-09-2019,4,5,22,o,o,o,,,6,-5.4,146,0,131,-5.4,90,84.6,78.6,0
"Michael Gosky",09-29-2019,submitted,12-09-2019,4,5,22,o,o,o,,,6,-1.8,137,0,127,-1.8,84,82.2,76.2,0
"Michael Gosky",09-28-2019,submitted,12-09-2019,4,5,22,o,o,o,,,5,34.8,48,0,48,34.8,0,34.8,28.8,0
"Michael Gosky",09-27-2019,submitted,12-09-2019,4,5,22,o,o,o,,,7,50.4,74,0,74,50.4,0,50.4,44.4,0
"Michael Gosky",09-26-2019,submitted,12-08-2019,4,5,22,o,o,o,,,1,24,30,0,30,24,0,24,18,0
"Michael Gosky",09-24-2019,submitted,12-08-2019,4,5,22,o,o,o,,,2,25.2,32,0,32,25.2,0,25.2,19.2,0
"Michael Gosky",09-23-2019,submitted,12-08-2019,4,5,22,o,o,o,,,2,18.6,21,0,21,18.6,0,18.6,12.6,0
"Michael Gosky",09-22-2019,submitted,12-08-2019,4,5,22,o,o,o,,,2,19.2,22,0,22,19.2,0,19.2,13.2,0
"Michael Gosky",09-21-2019,submitted,12-08-2019,4,5,22,o,o,o,,,8,120.6,191,0,191,120.6,0,120.6,114.6,0
"Michael Gosky",09-20-2019,submitted,12-07-2019,4,5,22,o,o,o,,,8,43.6,249,0,241,43.6,107,150.6,144.6,0
"Michael Gosky",09-19-2019,submitted,12-07-2019,4,5,22,o,o,o,,,2,20.4,24,0,24,20.4,0,20.4,14.4,0
"Michael Gosky",09-18-2019,submitted,12-07-2019,4,5,22,o,o,o,,,3,24,30,0,30,24,0,24,18,0
"Michael Gosky",09-17-2019,submitted,12-07-2019,4,5,22,o,o,0,,,1,12,10,0,10,12,0,12,6,0
"Michael Gosky",09-16-2019,submitted,12-07-2019,4,5,22,o,o,o,,,2,18.6,21,0,21,18.6,0,18.6,12.6,0
"Michael Gosky",09-15-2019,submitted,12-07-2019,4,5,22,o,o,o,,,4,39.6,56,0,56,39.6,0,39.6,33.6,0
"Michael Gosky",09-14-2019,submitted,12-07-2019,4,5,22,o,0,o,,,6,11,140,0,130,11,73,84,78,0
"Michael Gosky",09-11-2019,submitted,12-06-2019,4,5,22,o,o,o,,,3,-89.6,214,0,184,-89.6,206,116.4,110.4,0
"Michael Gosky",09-10-2019,submitted,12-06-2019,4,5,22,o,o,o,,,3,30.6,41,0,41,30.6,0,30.6,24.6,0
"Michael Gosky",09-09-2019,submitted,12-06-2019,4,5,22,o,o,o,,,4,52.8,78,0,78,52.8,0,52.8,46.8,0
"Michael Gosky",09-08-2019,submitted,12-06-2019,4,5,22,o,o,o,,,7,53.8,95,0,93,53.8,8,61.8,55.8,0
"Michael Gosky",09-07-2019,submitted,12-06-2019,4,5,22,o,o,o,,,4,11.2,52,0,47,11.2,23,34.2,28.2,0
"Michael Gosky",09-06-2019,submitted,12-06-2019,4,5,22,o,o,o,,,3,28.8,38,0,38,28.8,0,28.8,22.8,0
"Michael Gosky",09-05-2019,submitted,12-06-2019,4,5,22,o,o,o,,,6,38.2,91,0,87,38.2,20,58.2,52.2,0
"Michael Gosky",09-04-2019,submitted,12-06-2019,4,5,22,o,o,o,,,4,51.6,76,0,76,51.6,0,51.6,45.6,0
"Michael Gosky",09-03-2019,submitted,12-06-2019,4,5,22,o,o,o,,,1,12,10,0,10,12,0,12,6,0
"Michael Gosky",09-02-2019,submitted,12-06-2019,4,5,22,o,o,o,,,4,25.6,56,0,51,25.6,11,36.6,30.6,0
"Michael Gosky",09-01-2019,submitted,12-06-2019,4,5,22,o,o,o,,,9,22.4,203,0,189,22.4,97,119.4,113.4,0
"Michael Gosky",08-31-2019,submitted,12-04-2019,4,5,22,o,o,o,,,15,90,217,0,215,90,45,135,129,0
"Michael Gosky",08-30-2019,submitted,12-04-2019,4,5,22,o,o,o,,,6,-6.6,126,0,114,-6.6,81,74.4,68.4,0
"Michael Gosky",08-29-2019,submitted,12-02-2019,4,5,22,o,o,o,,,1,24,30,0,30,24,0,24,18,0
"Michael Gosky",08-28-2019,submitted,12-02-2019,4,5,22,o,o,o,,,5,15.4,42,0,39,15.4,14,29.4,23.4,0
"Michael Gosky",08-27-2019,submitted,12-02-2019,4,5,22,o,0,0,,,2,19.2,22,0,22,19.2,0,19.2,13.2,0
"Michael Gosky",08-26-2019,submitted,12-02-2019,4,5,22,o,o,o,,,2,19.2,22,0,22,19.2,0,19.2,13.2,0
"Michael Gosky",08-24-2019,submitted,12-02-2019,4,5,22,o,o,o,,,9,24,305,0,290,24,156,180,174,0
"Michael Gosky",08-23-2019,submitted,12-02-2019,4,5,22,o,o,o,,,2,7,70,0,60,7,35,42,36,0
"Michael Gosky",08-22-2019,submitted,12-02-2019,4,5,22,o,o,o,,,5,58.2,87,0,87,58.2,0,58.2,52.2,0
"Michael Gosky",08-21-2019,submitted,12-02-2019,4,5,22,o,o,o,,,6,20,115,0,115,20,55,75,69,0
"Michael Gosky",08-20-2019,submitted,12-01-2019,4,5,22,o,o,o,,,11,26.6,208,0,191,26.6,94,120.6,114.6,0
"Michael Gosky",08-18-2019,submitted,12-01-2019,4,5,22,o,o,o,,,5,54,80,0,80,54,0,54,48,0
"Michael Gosky",08-17-2019,submitted,12-01-2019,4,5,22,o,o,o,,,14,-23,341,0,300,-23,209,186,180,0
"Michael Gosky",08-16-2019,submitted,12-01-2019,4,5,22,o,o,o,,,4,90,140,0,140,90,0,90,84,0
"Michael Gosky",08-15-2019,submitted,12-01-2019,4,5,22,o,o,o,,,8,88.8,138,0,138,88.8,0,88.8,82.8,0
"Michael Gosky",08-13-2019,submitted,12-01-2019,4,5,22,o,o,o,,,3,31.8,43,0,43,31.8,0,31.8,25.8,0
"Michael Gosky",08-12-2019,submitted,12-01-2019,4,5,22,0,o,o,,,2,21.6,26,0,26,21.6,0,21.6,15.6,0
"Michael Gosky",08-11-2019,submitted,12-01-2019,4,5,22,o,o,o,,,7,10.6,161,0,146,10.6,83,93.6,87.6,0
"Michael Gosky",07-29-2019,submitted,08-28-2019,7,8,22,o,o,o,,,4,-15,199,0,180,-15,129,114,108,0
"Michael Gosky",07-28-2019,submitted,08-28-2019,7,8,22,o,o,o,,,4,21.4,144,0,134,21.4,65,86.4,80.4,0
"Michael Gosky",07-27-2019,submitted,08-28-2019,7,8,22,o,o,o,,,5,57.6,86,0,86,57.6,0,57.6,51.6,0
"Michael Gosky",07-26-2019,submitted,08-28-2019,7,8,22,o,o,o,,,4,-8.8,99,0,87,-8.8,67,58.2,52.2,0
"Michael Gosky",07-25-2019,submitted,08-28-2019,7,8,22,o,o,o,,,4,-60.4,161,0,131,-60.4,145,84.6,78.6,0
"Michael Gosky",07-23-2019,submitted,08-28-2019,7,8,22,o,o,o,,,5,-7.2,83,0,78,-7.2,60,52.8,46.8,0
"Michael Gosky",07-19-2019,submitted,08-28-2019,6,7,22,o,o,o,,,12,2.6,261,0,251,2.6,154,156.6,150.6,0
"Michael Gosky",07-18-2019,submitted,08-17-2019,7,8,35,o,o,o,,,5,-44,151,0,140,-44,134,90,84,0
"Michael Gosky",07-17-2019,submitted,08-17-2019,7,8,35,o,o,o,,,10,119.4,189,0,189,119.4,0,119.4,113.4,0
"Michael Gosky",07-12-2019,submitted,08-17-2019,7,8,35,0,o,o,,,11,14,145,0,130,14,70,84,78,0
"Michael Gosky",07-11-2019,submitted,08-17-2019,7,8,35,o,o,o,,,14,77.4,287,0,274,77.4,93,170.4,164.4,0
"Michael Gosky",07-10-2019,submitted,08-17-2019,7,8,35,o,o,o,,,14,142.6,384,26,341,142.6,94,236.6,204.6,0
"Michael Gosky",07-08-2019,submitted,08-16-2019,7,8,35,0,0,0,"56.23 voucher
from the previous day",,8,96.6,368,0,361,96.6,126,222.6,216.6,0
"Michael Gosky",07-07-2019,submitted,08-16-2019,7,8,35,o,o,o,,,8,-121.4,376,0,341,-121.4,332,210.6,204.6,0
"Michael Gosky",07-06-2019,submitted,08-16-2019,7,8,35,o,o,o,,,16,27.4,301,0,289,27.4,152,179.4,173.4,0
"Michael Gosky",07-05-2019,submitted,08-16-2019,7,8,35,o,o,0,"misdated the previous two
 because I skipped the 5th
had to do this 7th as the 5th

so the 6th
would really be the 5th
the 7th
would be the 6th",,5,-37.8,166,0,147,-37.8,132,94.2,88.2,0
"Michael Gosky",06-17-2019,submitted,07-28-2019,7,8,35,o,o,o,,,16,135,611,26,550,135,227,362,330,0
"Michael Gosky",06-15-2019,submitted,06-26-2019,5,6,35,o,o,o,,,12,27.4,324,0,314,27.4,167,194.4,188.4,0
"Michael Gosky",06-12-2019,submitted,08-12-2019,5,6,35,0,o,o,,"Please make re-attach voucher in full shot some parts are cut off. Also please make sure to enter in voucher # and Fees amount as appropriately. Mahalo!",8,-78.8,306.33,29.33,257,-78.8,268.33,189.53,154.2,0
"Michael Gosky",06-06-2019,submitted,06-17-2019,5,6,35,o,o,o,,,8,10.4,196,0,174,10.4,100,110.4,104.4,0
Driver1,05-05-2019,submitted,12-08-2019,22,34,"My Car",cool,12,23,"I want my fnd :)","Don't get it  twisted",4,479.4,1659,176,1209,479.4,428,907.4,725.4,0
