Driver,Tripsheet Date,Status,Date,Mileage From,Mileage To,Car,Engine Oil,Transmission Fluid,Coolant,Note,Admin Note,Trips,Driver Owes,Gross Sale,Total Fees,Total Cash & Credit Fare,Driver Subtotal,Gross to Royal,Total Credit Fares/Tips,60%,Miscelleneous Charge/Credit
Paul Grant,07-03-2021,rejected,05-02-2019,59447,59554,25,,,,,,,,,,,,,,
Paul Grant,07-03-2021,rejected,05-02-2019,59447,59554,25,,,,,,,,,,,,,,
Paul Grant,07-03-2021,rejected,05-02-2019,59447,59554,25,,,,,,,,,,,,,,
Paul Grant,07-03-2021,rejected,05-02-2019,59447,59554,25,,,,,,,,,,,,,,
Paul Grant,06-03-2021,rejected,05-02-2019,59323,59447,25,,,,,,,,,,,,,,
Paul Grant,06-03-2021,rejected,05-02-2019,59323,59447,25,,,,,,,,,,,,,,
Paul Grant,06-03-2021,rejected,05-02-2019,59323,59447,25,,,,,,,,,,,,,,
Paul Grant,06-03-2021,rejected,05-02-2019,59323,59447,25,,,,,,,,,,,,,,
Paul Grant,06-03-2021,rejected,05-02-2019,59323,59447,25,,,,,,,,,,,,,,
Paul Grant,05-03-2021,rejected,05-02-2019,59201,59323,25,,,,,,,,,,,,,,
Paul Grant,05-03-2021,rejected,05-02-2019,59201,59323,25,,,,,,,,,,,,,,
Paul Grant,05-03-2021,rejected,05-02-2019,59201,59323,25,,,,,,,,,,,,,,
Paul Grant,05-03-2021,rejected,05-02-2019,59201,59323,25,,,,,,,,,,,,,,
Paul Grant,05-03-2021,rejected,05-02-2019,59201,59323,25,,,,,,,,,,,,,,
Paul Grant,05-03-2021,rejected,05-02-2019,59201,59323,25,,,,,,,,,,,,,,
Paul Grant,01-03-2021,rejected,05-02-2019,59133,59201,25,,,,,,,,,,,,,,
Paul Grant,01-03-2021,rejected,05-02-2019,59133,59201,25,,,,,,,,,,,,,,
Paul Grant,01-03-2021,rejected,05-02-2019,59133,59201,25,,,,,,,,,,,,,,
Paul Grant,12-03-2020,rejected,05-02-2019,59025,59133,25,,,,,,,,,,,,,,
Paul Grant,12-03-2020,rejected,05-02-2019,59025,59133,25,,,,,,,,,,,,,,
Paul Grant,12-03-2020,rejected,05-02-2019,59025,59133,25,,,,,,,,,,,,,,
Paul Grant,11-03-2020,rejected,05-02-2019,58912,59025,25,,,,,,,,,,,,,,
Paul Grant,11-03-2020,rejected,05-02-2019,58912,59025,25,,,,,,,,,,,,,,
Ron Brock,10-27-2019,rejected,11-05-2019,92258,92344,14,1,1,1,Service needed,Last Trip from OGG to Kahului Harbor Cruise Ship the distance between the two is 3.0 Miles But the Fare Charges is less i.e $10.9 why ?,,,,,,,,,
Ron Brock,10-20-2019,rejected,11-05-2019,91387,91802,14,1,1,1,Not even from the Westin he paid us 104 + 16 tip total 120,@nd Trip,the Distance between Maui Westin and OGG is 27.3 but the fare charged is $104?,,,,,,,,,
Doug Weber,10-07-2019,rejected,11-04-2019,0,0,0,0,0,0,0,The Miles from Grand Wailea to OGG is 17 Miles Approx but the fare charged is $21 only for the first trip party name ''Couple' GW/ OGG,,,,,,,,,
Frank Hernandez,10-07-2019,rejected,11-05-2019,97722,97903,16,,,,,2nd Trip from Grand wailea to Gold Course,Party Name Vincent.The distance between Grand to Gold is 1.8 or 2 Miles but the fare charged is $13.10 neither are there any notes ragarding the trip.,,,,,,,,,
Ron Brock,09-29-2019,rejected,11-05-2019,89781,89882,14,1,1,1,This is the last trip for me in sep  2019,For 2nd and 3rd Trip the Distance between 134 Mahina Cafe to Khei Cafe is 1.2 Miles, how fare of $5.9 is charged ?,,,,,,,,,
Ron Brock,09-14-2019,rejected,11-05-2019,89156,89275,14,1,1,1,,4rth Trip, Party name Mcenny. The Distatnce Between Four Seasons and Pacific rootz Tattoo is %.7 Miles but the fare charges is 17.. Please Explain.,,,,,,,,,
Ron Brock,09-09-2019,rejected,10-12-2019,88609,88780,14,1,1,1,Note gamman no alii they went on the shuttle but the grand still paying,,,,,,,,,,
Doug Weber,09-01-2019,rejected,11-04-2019,0,0,0,0,0,0,0,,,,,,,,,,
Michael Gosky,08-08-2019,rejected,09-27-2019,7,8,22,o,o,o,,,,,,,,,,,
Michael Gosky,08-05-2019,rejected,09-27-2019,7,8,22,o,o,o,,,,,,,,,,,
Michael Gosky,08-04-2019,rejected,09-27-2019,7,8,22,o,o,o,,,,,,,,,,,
Michael Gosky,08-03-2019,rejected,09-27-2019,7,8,22,o,o,o,,,,,,,,,,,
Michael Gosky,08-01-2019,rejected,09-27-2019,7,8,22,o,o,o,,,,,,,,,,,
Michael Gosky,06-30-2019,rejected,08-15-2019,7,8,35,o,0,o,,,,,,,,,,,
Michael Gosky,06-29-2019,rejected,08-15-2019,7,8,t,o,o,o,,,,,,,,,,,
Michael Gosky,06-28-2019,rejected,08-15-2019,7,8,35,o,o,o,,,,,,,,,,,
Michael Gosky,06-27-2019,rejected,08-15-2019,7,8,35,o,o,o,,,,,,,,,,,
Michael Gosky,06-26-2019,rejected,08-15-2019,7,8,35,o,o,o,,,,,,,,,,,
Michael Gosky,06-25-2019,rejected,08-15-2019,7,8,35,o,o,o,,,,,,,,,,,
Michael Gosky,06-24-2019,rejected,08-15-2019,7,8,35,o,o,o,,,,,,,,,,,
Ron Brock,06-21-2019,rejected,07-15-2019,1,1,1,1,1,1,,Missing voucher attachment for 161251,,,,,,,,,
Ron Brock,06-14-2019,rejected,07-15-2019,1,1,14,1,1,1,,missing voucher 199430 attachment,,,,,,,,,
Ron Brock,06-08-2019,rejected,07-15-2019,82773,82870,car 14,1,1,1,,11824,,,,,,,,,
Ron Brock,06-03-2019,rejected,07-15-2019,82580,82671,14,1,1,1,,voucher attachment,,,,,,,,,
Michael Gosky,06-02-2019,rejected,07-10-2019,5,6,35,o,0,0,,Please reattached voucher, it's cutoff,,,,,,,,,
Ron Brock,06-01-2019,rejected,07-15-2019,1,1,car 14,1,1,1,,199397,,,,,,,,,
Frank Hernandez,05-31-2019,rejected,07-10-2019,84772,84950,16,,,,,Please add missing voucher #199393,,,,,,,,,
Ron Brock,05-27-2019,rejected,07-15-2019,82188,82353,14,1,1,1,,missing all vouchers!,,,,,,,,,
Ron Brock,05-26-2019,rejected,07-15-2019,1,1,14,1,1,1,On flagg. Sent photo of both vouchers,102630,,,,,,,,,
Michael Gosky,05-16-2019,rejected,09-09-2019,5,6,35,o,o,o,,,,,,,,,,,
Ron Brock,05-11-2019,rejected,07-15-2019,80929,81060,car 14,1,1,1,,please upload voucher 196363.,,,,,,,,,
Driver1,05-05-2019,rejected,08-14-2019,22,34,My Car,cool,12,23,I want my fnd :),Don't get it  twisted,,,,,,,,,
Driver1,05-05-2019,rejected,05-05-2019,1,1,5,0,,,test,test worked but i must remove it now,,,,,,,,,
Driver1,05-02-2019,rejected,05-03-2019,1,2,A,,,,,,,,,,,,,,
Arion Love,05-01-2019,rejected,05-15-2019,250821,250959,19,,,,,empty,,,,,,,,,
Michael Gosky,04-29-2019,rejected,06-06-2019,2,3,35,o,o,o,,no fare added,,,,,,,,,
Michael Gosky,04-24-2019,rejected,06-06-2019,4,5,35,o,o,o,,combined 2 days,,,,,,,,,
Mike Raher,04-24-2019,rejected,10-04-2019,212706,212791,7,,,,,,,,,,,,,,
Paul Grant,04-22-2019,rejected,05-10-2019,60859,61017,25,,,,,Missing Run:
25	1 Pax	Paul G		Haleakala Gardens	IMUA 411 Hukulii Place	10:30 AM	00:29	Completed
Bill hemic claim, add 15% tip			Norm leblanc 775 527 6910	00:28,,,,,,,,,
Michael Gosky,04-22-2019,rejected,05-31-2019,6,7,35,o,o,o,,error,,,,,,,,,
Michael Gosky,04-22-2019,rejected,05-31-2019,6,7,35,o,o,o,,Missing the ABC store back to Kalama Heights,,,,,,,,,
Michael Gosky,04-21-2019,rejected,05-20-2019,5,6,35,o,o,o,,What happened to marriot/mataeos? Also, missing Paia Fish Market to GW for Petkewish party,,,,,,,,,
Frank Hernandez,04-20-2019,rejected,05-10-2019,80529,80731,16,,,,On trip sheet 4/18/19, line item 9 for Torres. I forgot meter total. Had to clear and move quickly as a bus pulled in behind me as I was unloading passengers. Didn't write meter total down so I matched amount of $57.20 that was amount when I took them, line item 8 for Torres.,On Torres	04-18-2019	Heliport/Grand Wailea, missing ride to Kihei,,,,,,,,,
Frank Hernandez,04-20-2019,rejected,05-10-2019,80731,80872,16,,,,,Missing KBR to GW Rogalski,,,,,,,,,
Doug Weber,04-20-2019,rejected,05-24-2019,0,0,0,0,0,0,,OMAOPIO ESTATES to MAALAEA is at least 16.9 which should be at least $54;,,,,,,,,,
Michael Gosky,04-20-2019,rejected,05-20-2019,5,6,35,o,o,o,,Don't see copy of voucher and credit card transaction,,,,,,,,,
Michael Gosky,04-20-2019,rejected,05-20-2019,5,6,35,o,o,o,,,,,,,,,,,
Michael Gosky,04-18-2019,rejected,05-20-2019,4,5,35,o,o,0,,2 dates are combined. Also, can't find credit transactions records for $8 and $79.,,,,,,,,,
Michael Gosky,04-14-2019,rejected,05-10-2019,2,5,35,o,o,o,,Missing Worldmark to Spagos, Skirrow 2 pax at 4 p.m.,,,,,,,,,
Paul Grant,04-14-2019,rejected,05-03-2019,60232,60403,25,,,,,,,,,,,,,,
Michael Gosky,04-14-2019,rejected,05-10-2019,2,5,35,o,o,o,,missing fare amount from 	04-14-2019	kalama hts/longs,,,,,,,,,
Ron Brock,04-08-2019,rejected,04-30-2019,1,1,14,1,1,1,,,,,,,,,,,
Michael Gosky,04-08-2019,rejected,05-07-2019,3,5,35,o,o,o,,Rejecting this since the fare is entered in the fee's section.,,,,,,,,,
Michael Gosky,04-02-2019,rejected,05-07-2019,3,4,35,o,o,o,didn't go through 1st time,this is a duplicate, 4/2 has been approved on 4/24,,,,,,,,,
Paul Grant,03-31-2019,rejected,04-24-2019,0,0,25,,,,,,,,,,,,,,
Michael Gosky,03-29-2019,rejected,09-18-2019,7,8,35,0,o,o,june,,,,,,,,,,
Paul Grant,03-24-2019,rejected,05-02-2019,59025,59133,25,,,,,,,,,,,,,,
Paul Grant,03-23-2019,rejected,05-02-2019,58912,59025,25,,,,,,,,,,,,,,
Paul Grant,03-23-2019,rejected,05-02-2019,58912,59025,25,,,,,,,,,,,,,,
Michael Gosky,02-27-2019,rejected,09-18-2019,7,8,35,o,o,o,for june,,,,,,,,,,
Michael Gosky,02-26-2019,rejected,09-18-2019,7,8,35,o,o,o,this is for june,,,,,,,,,,
