Driver,TripsheetDate,Status,Date,MileageFrom,MileageTo,Car,EngineOil,TransmissionFluid,Coolant,Note,AdminNote,Trips,DriverOwes,GrossSale,TotalFees,TotalCashCreditFare,DriverSubTotal,TotalCreditFaresTips,GrossToRoyal,SixtyPercent,MisecellneousChargeCredit
"Bob Leitz",02-07-2020,submitted,02-08-2020,87555,87711,ok,ok,ok,ok,"Johnson run was from 2/6",,5,63.04,178.4,0,178.4,63.04,50,113.04,107.04,0
"Bob Leitz",02-05-2020,submitted,02-06-2020,87481,87555,ok,"needs oil change",ok,ok,,,3,119.04,188.4,0,188.4,119.04,0,119.04,113.04,0
"Bob Leitz",01-31-2020,submitted,02-02-2020,87329,87481,ok,ok,ok,ok,,,6,63.22,304.7,26,278.7,63.22,136,199.22,167.22,0
"Bob Leitz",01-29-2020,submitted,01-30-2020,87208,87310,ok,ok,ok,ok,,,4,-3.9,274.5,26,218.5,-3.9,167,163.1,131.1,0
"Doug Weber",01-28-2020,submitted,01-30-2020,0,0,0,0,0,0,0,,2,-10.32,90.8,0,80.8,-10.32,64.8,54.48,48.48,0
"Doug Weber",01-27-2020,submitted,01-30-2020,0,0,0,0,0,0,0,,4,-32.64,225.1,26,169.1,-32.64,166.1,133.46,101.46,0
"Doug Weber",01-26-2020,submitted,01-30-2020,0,0,0,0,0,0,0,,6,-91.64,456.6,26,380.6,-91.64,352,260.36,228.36,0
"Doug Weber",01-25-2020,submitted,01-30-2020,0,0,0,0,0,0,0,,8,-8.14,353.6,26,279.6,-8.14,207.9,199.76,167.76,0
"Doug Weber",01-21-2020,submitted,01-29-2020,0,0,0,0,0,0,0,,5,63.6,96,0,96,63.6,0,63.6,57.6,0
"Doug Weber",01-20-2020,submitted,01-29-2020,0,0,0,0,0,0,0,,8,61.08,171.3,0,167.3,61.08,45.3,106.38,100.38,0
"Doug Weber",01-19-2020,submitted,01-29-2020,0,0,0,0,0,0,0,,9,43.88,299.3,0,294.3,43.88,138.7,182.58,176.58,0
"Doug Weber",01-18-2020,submitted,01-29-2020,0,0,0,0,0,0,0,,8,102.02,433.7,52,351.7,102.02,167,269.02,211.02,0
"Doug Weber",01-16-2020,submitted,01-29-2020,0,0,0,0,0,0,0,,4,58.14,86.9,0,86.9,58.14,0,58.14,52.14,0
"Doug Weber",01-15-2020,submitted,01-29-2020,0,0,0,0,0,0,0,,12,138.98,354.3,2.5,344.8,138.98,76.4,215.38,206.88,0
"Doug Weber",01-14-2020,submitted,01-29-2020,0,0,0,0,0,0,0,,5,33.98,164.3,26,138.3,33.98,81,114.98,82.98,0
"Doug Weber",01-13-2020,submitted,01-28-2020,0,0,0,292.76,0,0,"$212.76 Napa for oil and battery. $80.00 paid cash to Primm",,1,-16,57.2,2.2,55,-16,57.2,41.2,33,0
"Doug Weber",01-12-2020,submitted,01-28-2020,0,0,0,0,0,0,0,,5,-115.12,346.3,26,276.3,-115.12,312.9,197.78,165.78,0
"Doug Weber",01-11-2020,submitted,01-28-2020,0,0,0,0,0,0,0,,9,77.44,419.4,52,352.4,77.44,192,269.44,211.44,0
"Paul Grant",01-10-2020,submitted,01-22-2020,82984,83158,25,,,,,,9,147.14,390.9,0,382.9,147.14,88.6,235.74,229.74,0
"Paul Grant",01-09-2020,submitted,01-22-2020,82950,82984,25,,,,,,1,39.6,56,0,56,39.6,0,39.6,33.6,0
"Doug Weber",01-08-2020,submitted,01-28-2020,0,0,0,0,0,0,0,,6,48.32,186.7,0,178.7,48.32,64.9,113.22,107.22,0
"Doug Weber",01-07-2020,submitted,01-28-2020,0,0,0,0,0,0,0,,7,-150.2,378,0,326,-150.2,351.8,201.6,195.6,0
"Paul Grant",01-06-2020,submitted,01-22-2020,82868,82950,25,,,,,,3,26.92,131.7,0,118.2,26.92,50,76.92,70.92,0
"Ron Brock",01-06-2020,submitted,01-27-2020,10027,100237,14,1,1,1,,,8,149.48,336.3,0,334.3,149.48,57.1,206.58,200.58,0
"Doug Weber",01-06-2020,submitted,01-28-2020,0,0,0,0,0,0,0,,4,-11.9,302,26,266,-11.9,203.5,191.6,159.6,0
"Paul Grant",01-05-2020,submitted,01-22-2020,82518,82868,25,,,,,,12,87.34,527.9,0,507.9,87.34,223.4,310.74,304.74,0
"Doug Weber",01-05-2020,submitted,01-27-2020,0,0,0,0,0,0,0,,9,-144.98,455.7,0,392.7,-144.98,386.6,241.62,235.62,0
"Ron Brock",01-05-2020,submitted,01-27-2020,99765,10027,14,1,1,1,"Service, needed",,11,53.22,470.7,0,445.2,53.22,219.9,273.12,267.12,0
"Paul Grant",01-04-2020,submitted,01-22-2020,82333,82518,25,,,,,,6,-46.3,384,0,344,-46.3,258.7,212.4,206.4,0
"Doug Weber",01-04-2020,submitted,01-27-2020,0,0,0,0,0,0,0,,9,-0.48000000000002,497.4,2.2,463.2,-0.48000000000002,286.6,286.12,277.92,0
"Ron Brock",01-04-2020,submitted,01-27-2020,99574,99765,14,1,1,1,,,10,-14.82,337.8,0,297.8,-14.82,199.5,184.68,178.68,0
"Paul Grant",01-03-2020,submitted,01-22-2020,82017,82333,25,,,,,,12,204.3,545.3,26,505.5,204.3,131,335.3,303.3,0
"Ron Brock",01-03-2020,submitted,01-27-2020,99269,99574,14,1,1,1,"Tassos was a baggage run. I didn't do that run. Paid peter for T.H. Cash from taxi services. I think that was Frank's run. Told to put it as a tip per T.H.  please don't for get....",,10,-163.1,664.5,26,497,-163.1,493.3,330.2,298.2,0
"Paul Grant",01-02-2020,submitted,01-22-2020,81859,82017,25,,,,,,6,-24.74,322.4,4.4,309.1,-24.74,220.6,195.86,185.46,0
"Doug Weber",01-02-2020,submitted,01-27-2020,0,0,0,0,0,0,0,,7,190.56,808.04,83.44,705.6,190.56,322.24,512.8,423.36,0
"Frank Hernandez",01-01-2020,submitted,01-26-2020,109036,109300,16,,,,,,11,59.52,560.2,26,481.2,59.52,261.2,320.72,288.72,0
"Doug Weber",01-01-2020,submitted,01-27-2020,0,0,0,0,0,0,,,7,54.5,338.2,2.2,336,54.5,155.3,209.8,201.6,0
"Ron Brock",01-01-2020,submitted,01-27-2020,99187,99269,14,1,1,1,"Note need  major services, oil,transmission flush, main belt needs to be replace soon please.. prevent before something happens that we could have prevented ....",,1,-63.24,135.6,0,110.6,-63.24,135.6,72.36,66.36,0
